CSCI E-63C: Week 3 Assignment
…
# name appropriately data set attributes
columns = c('sex','len','diameter','height','whole_weight', 'shucked_weight', 'viscera_weight', 'shell_weight', 'y_rings')
colnames(data) = columns
# Replace  the raw rings value with adjusted age equivalent: Rings, +1.5 gives the age in years
data$y_age =  data$y_rings + 1.5
# Remove the raw y_rings column
data = data %>% select(-y_rings)
print(data)

## # A tibble: 4,177 x 9
##    sex     len diameter height whole_weight shucked_weight viscera_weight
##    <chr> <dbl>    <dbl>  <dbl>        <dbl>          <dbl>          <dbl>
##  1 M     0.455    0.365 0.0950        0.514         0.224          0.101 
##  2 M     0.350    0.265 0.0900        0.226         0.0995         0.0485
##  3 F     0.530    0.420 0.135         0.677         0.256          0.142 
##  4 M     0.440    0.365 0.125         0.516         0.216          0.114 
##  5 I     0.330    0.255 0.0800        0.205         0.0895         0.0395
##  6 I     0.425    0.300 0.0950        0.352         0.141          0.0775
##  7 F     0.530    0.415 0.150         0.778         0.237          0.142 
##  8 F     0.545    0.425 0.125         0.768         0.294          0.150 
##  9 M     0.475    0.370 0.125         0.509         0.216          0.112 
## 10 F     0.550    0.440 0.150         0.894         0.314          0.151 
## # ... with 4,167 more rows, and 2 more variables: shell_weight <dbl>,
## #   y_age <dbl>
…
