CSCI E-63C: Week 2 Assignment
…
Answer

The first, relatively minor, difference is the default number of rows returned by a call to print. I wont bother wasting space by doing a print against the full dataframe object (df_aba) but the point is that simply printing the df without restriction will result in the all ~5k rows of the abalone data set being output, which is likely not what a user wants - 10 is good enough and that is what a tibble does by default.

data_path = './data/abalone.data'
df_aba = read.table( data_path, sep=',')
tb_aba = as_tibble(df_aba)

# all would print out
#print(df_aba)

# only 10 will print
print(tb_aba)

## # A tibble: 4,177 x 9
##    V1       V2    V3     V4    V5     V6     V7     V8    V9
##    <fct> <dbl> <dbl>  <dbl> <dbl>  <dbl>  <dbl>  <dbl> <int>
##  1 M     0.455 0.365 0.0950 0.514 0.224  0.101  0.150     15
##  2 M     0.350 0.265 0.0900 0.226 0.0995 0.0485 0.0700     7
##  3 F     0.530 0.420 0.135  0.677 0.256  0.142  0.210      9
##  4 M     0.440 0.365 0.125  0.516 0.216  0.114  0.155     10
##  5 I     0.330 0.255 0.0800 0.205 0.0895 0.0395 0.0550     7
##  6 I     0.425 0.300 0.0950 0.352 0.141  0.0775 0.120      8
##  7 F     0.530 0.415 0.150  0.778 0.237  0.142  0.330     20
##  8 F     0.545 0.425 0.125  0.768 0.294  0.150  0.260     16
##  9 M     0.475 0.370 0.125  0.509 0.216  0.112  0.165      9
## 10 F     0.550 0.440 0.150  0.894 0.314  0.151  0.320     19
## # ... with 4,167 more rows
…
print(tb)

## # A tibble: 4,176 x 9
##    M     `0.455` `0.365` `0.095` `0.514` `0.2245` `0.101` `0.15`  `15`
##    <chr>   <dbl>   <dbl>   <dbl>   <dbl>    <dbl>   <dbl>  <dbl> <int>
##  1 M       0.350   0.265  0.0900   0.226   0.0995  0.0485 0.0700     7
##  2 F       0.530   0.420  0.135    0.677   0.256   0.142  0.210      9
##  3 M       0.440   0.365  0.125    0.516   0.216   0.114  0.155     10
##  4 I       0.330   0.255  0.0800   0.205   0.0895  0.0395 0.0550     7
##  5 I       0.425   0.300  0.0950   0.352   0.141   0.0775 0.120      8
##  6 F       0.530   0.415  0.150    0.778   0.237   0.142  0.330     20
##  7 F       0.545   0.425  0.125    0.768   0.294   0.150  0.260     16
##  8 M       0.475   0.370  0.125    0.509   0.216   0.112  0.165      9
##  9 F       0.550   0.440  0.150    0.894   0.314   0.151  0.320     19
## 10 F       0.525   0.380  0.140    0.606   0.194   0.148  0.210     14
## # ... with 4,166 more rows
…
